%YAML 1.1
%TAG !u! tag:unity3d.com,2011:
--- !u!29 &1
OcclusionCullingSettings:
  m_ObjectHideFlags: 0
  serializedVersion: 2
  m_OcclusionBakeSettings:
    smallestOccluder: 5
    smallestHole: 0.25
    backfaceThreshold: 100
  m_SceneGUID: 00000000000000000000000000000000
  m_OcclusionCullingData: {fileID: 0}
--- !u!104 &2
RenderSettings:
  m_ObjectHideFlags: 0
  serializedVersion: 9
  m_Fog: 0
  m_FogColor: {r: 0.5, g: 0.5, b: 0.5, a: 1}
  m_FogMode: 3
  m_FogDensity: 0.01
  m_LinearFogStart: 0
  m_LinearFogEnd: 300
  m_AmbientSkyColor: {r: 0.212, g: 0.227, b: 0.259, a: 1}
  m_AmbientEquatorColor: {r: 0.114, g: 0.125, b: 0.133, a: 1}
  m_AmbientGroundColor: {r: 0.047, g: 0.043, b: 0.035, a: 1}
  m_AmbientIntensity: 1
  m_AmbientMode: 0
  m_SubtractiveShadowColor: {r: 0.42, g: 0.478, b: 0.627, a: 1}
  m_SkyboxMaterial: {fileID: 10304, guid: 0000000000000000f000000000000000, type: 0}
  m_HaloStrength: 0.5
  m_FlareStrength: 1
  m_FlareFadeSpeed: 3
  m_HaloTexture: {fileID: 0}
  m_SpotCookie: {fileID: 10001, guid: 0000000000000000e000000000000000, type: 0}
  m_DefaultReflectionMode: 0
  m_DefaultReflectionResolution: 128
  m_ReflectionBounces: 1
  m_ReflectionIntensity: 1
  m_CustomReflection: {fileID: 0}
  m_Sun: {fileID: 0}
  m_IndirectSpecularColor: {r: 0.44676405, g: 0.49663115, b: 0.57493097, a: 1}
  m_UseRadianceAmbientProbe: 0
--- !u!157 &3
LightmapSettings:
  m_ObjectHideFlags: 0
  serializedVersion: 12
  m_GIWorkflowMode: 1
  m_GISettings:
    serializedVersion: 2
    m_BounceScale: 1
    m_IndirectOutputScale: 1
    m_AlbedoBoost: 1
    m_EnvironmentLightingMode: 0
    m_EnableBakedLightmaps: 1
    m_EnableRealtimeLightmaps: 1
  m_LightmapEditorSettings:
    serializedVersion: 12
    m_Resolution: 2
    m_BakeResolution: 40
    m_AtlasSize: 1024
    m_AO: 0
    m_AOMaxDistance: 1
    m_CompAOExponent: 1
    m_CompAOExponentDirect: 0
    m_ExtractAmbientOcclusion: 0
    m_Padding: 2
    m_LightmapParameters: {fileID: 0}
    m_LightmapsBakeMode: 1
    m_TextureCompression: 1
    m_FinalGather: 0
    m_FinalGatherFiltering: 1
    m_FinalGatherRayCount: 256
    m_ReflectionCompression: 2
    m_MixedBakeMode: 2
    m_BakeBackend: 0
    m_PVRSampling: 1
    m_PVRDirectSampleCount: 32
    m_PVRSampleCount: 500
    m_PVRBounces: 2
    m_PVREnvironmentSampleCount: 500
    m_PVREnvironmentReferencePointCount: 2048
    m_PVRFilteringMode: 2
    m_PVRDenoiserTypeDirect: 0
    m_PVRDenoiserTypeIndirect: 0
    m_PVRDenoiserTypeAO: 0
    m_PVRFilterTypeDirect: 0
    m_PVRFilterTypeIndirect: 0
    m_PVRFilterTypeAO: 0
    m_PVREnvironmentMIS: 0
    m_PVRCulling: 1
    m_PVRFilteringGaussRadiusDirect: 1
    m_PVRFilteringGaussRadiusIndirect: 5
    m_PVRFilteringGaussRadiusAO: 2
    m_PVRFilteringAtrousPositionSigmaDirect: 0.5
    m_PVRFilteringAtrousPositionSigmaIndirect: 2
    m_PVRFilteringAtrousPositionSigmaAO: 1
    m_ExportTrainingData: 0
    m_TrainingDataDestination: TrainingData
    m_LightProbeSampleCountMultiplier: 4
  m_LightingDataAsset: {fileID: 112000002, guid: 63e7f6cb6d36c114b8ed3f8a0abc6f87, type: 2}
  m_LightingSettings: {fileID: 4890085278179872738, guid: 529df1b37a745944fa1f41515a14db34, type: 2}
--- !u!196 &4
NavMeshSettings:
  serializedVersion: 2
  m_ObjectHideFlags: 0
  m_BuildSettings:
    serializedVersion: 2
    agentTypeID: 0
    agentRadius: 0.5
    agentHeight: 2
    agentSlope: 45
    agentClimb: 0.4
    ledgeDropHeight: 0
    maxJumpAcrossDistance: 0
    minRegionArea: 2
    manualCellSize: 0
    cellSize: 0.16666667
    manualTileSize: 0
    tileSize: 256
    accuratePlacement: 0
    maxJobWorkers: 0
    preserveTilesOutsideBounds: 0
    debug:
      m_Flags: 0
  m_NavMeshData: {fileID: 0}
--- !u!1001 &250608799
PrefabInstance:
  m_ObjectHideFlags: 0
  serializedVersion: 2
  m_Modification:
    m_TransformParent: {fileID: 0}
    m_Modifications:
    - target: {fileID: 1410880384113558, guid: b471d26a5eac87b4086c90c7c0b76f4e, type: 3}
      propertyPath: m_Name
      value: PTK_Cube_1 (14)
      objectReference: {fileID: 0}
    - target: {fileID: 4009654013808098, guid: b471d26a5eac87b4086c90c7c0b76f4e, type: 3}
      propertyPath: m_LocalPosition.x
      value: 269.92
      objectReference: {fileID: 0}
    - target: {fileID: 4009654013808098, guid: b471d26a5eac87b4086c90c7c0b76f4e, type: 3}
      propertyPath: m_LocalPosition.y
      value: 0
      objectReference: {fileID: 0}
    - target: {fileID: 4009654013808098, guid: b471d26a5eac87b4086c90c7c0b76f4e, type: 3}
      propertyPath: m_LocalPosition.z
      value: 239.85
      objectReference: {fileID: 0}
    - target: {fileID: 4009654013808098, guid: b471d26a5eac87b4086c90c7c0b76f4e, type: 3}
      propertyPath: m_LocalRotation.x
      value: 0
      objectReference: {fileID: 0}
    - target: {fileID: 4009654013808098, guid: b471d26a5eac87b4086c90c7c0b76f4e, type: 3}
      propertyPath: m_LocalRotation.y
      value: 0
      objectReference: {fileID: 0}
    - target: {fileID: 4009654013808098, guid: b471d26a5eac87b4086c90c7c0b76f4e, type: 3}
      propertyPath: m_LocalRotation.z
      value: 0
      objectReference: {fileID: 0}
    - target: {fileID: 4009654013808098, guid: b471d26a5eac87b4086c90c7c0b76f4e, type: 3}
      propertyPath: m_LocalRotation.w
      value: 1
      objectReference: {fileID: 0}
    - target: {fileID: 4009654013808098, guid: b471d26a5eac87b4086c90c7c0b76f4e, type: 3}
      propertyPath: m_RootOrder
      value: 13
      objectReference: {fileID: 0}
    - target: {fileID: 23777305934327796, guid: b471d26a5eac87b4086c90c7c0b76f4e, type: 3}
      propertyPath: m_Materials.Array.data[0]
      value: 
      objectReference: {fileID: 2100000, guid: dd594aa7b65105b4f830bddd556f66fa, type: 2}
    m_RemovedComponents: []
  m_SourcePrefab: {fileID: 100100000, guid: b471d26a5eac87b4086c90c7c0b76f4e, type: 3}
--- !u!1 &284845868
GameObject:
  m_ObjectHideFlags: 0
  m_CorrespondingSourceObject: {fileID: 0}
  m_PrefabInstance: {fileID: 0}
  m_PrefabAsset: {fileID: 0}
  serializedVersion: 6
  m_Component:
  - component: {fileID: 284845870}
  - component: {fileID: 284845869}
  m_Layer: 0
  m_Name: Directional Light
  m_TagString: Untagged
  m_Icon: {fileID: 0}
  m_NavMeshLayer: 0
  m_StaticEditorFlags: 0
  m_IsActive: 1
--- !u!108 &284845869
Light:
  m_ObjectHideFlags: 0
  m_CorrespondingSourceObject: {fileID: 0}
  m_PrefabInstance: {fileID: 0}
  m_PrefabAsset: {fileID: 0}
  m_GameObject: {fileID: 284845868}
  m_Enabled: 1
  serializedVersion: 10
  m_Type: 1
  m_Shape: 0
  m_Color: {r: 1, g: 0.95686275, b: 0.8392157, a: 1}
  m_Intensity: 1
  m_Range: 10
  m_SpotAngle: 30
  m_InnerSpotAngle: 21.80208
  m_CookieSize: 10
  m_Shadows:
    m_Type: 2
    m_Resolution: -1
    m_CustomResolution: -1
    m_Strength: 1
    m_Bias: 0.05
    m_NormalBias: 0.4
    m_NearPlane: 0.2
    m_CullingMatrixOverride:
      e00: 1
      e01: 0
      e02: 0
      e03: 0
      e10: 0
      e11: 1
      e12: 0
      e13: 0
      e20: 0
      e21: 0
      e22: 1
      e23: 0
      e30: 0
      e31: 0
      e32: 0
      e33: 1
    m_UseCullingMatrixOverride: 0
  m_Cookie: {fileID: 0}
  m_DrawHalo: 0
  m_Flare: {fileID: 0}
  m_RenderMode: 0
  m_CullingMask:
    serializedVersion: 2
    m_Bits: 4294967295
  m_RenderingLayerMask: 1
  m_Lightmapping: 4
  m_LightShadowCasterMode: 0
  m_AreaSize: {x: 1, y: 1}
  m_BounceIntensity: 1
  m_ColorTemperature: 6570
  m_UseColorTemperature: 0
  m_BoundingSphereOverride: {x: 0, y: 0, z: 0, w: 0}
  m_UseBoundingSphereOverride: 0
  m_ShadowRadius: 0
  m_ShadowAngle: 0
--- !u!4 &284845870
Transform:
  m_ObjectHideFlags: 0
  m_CorrespondingSourceObject: {fileID: 0}
  m_PrefabInstance: {fileID: 0}
  m_PrefabAsset: {fileID: 0}
  m_GameObject: {fileID: 284845868}
  m_LocalRotation: {x: 0.40821788, y: -0.23456968, z: 0.10938163, w: 0.8754261}
  m_LocalPosition: {x: 0, y: 3, z: 0}
  m_LocalScale: {x: 1, y: 1, z: 1}
  m_Children: []
  m_Father: {fileID: 0}
  m_RootOrder: 2
  m_LocalEulerAnglesHint: {x: 50, y: -30, z: 0}
--- !u!1001 &331714107
PrefabInstance:
  m_ObjectHideFlags: 0
  serializedVersion: 2
  m_Modification:
    m_TransformParent: {fileID: 0}
    m_Modifications:
    - target: {fileID: 1410880384113558, guid: b471d26a5eac87b4086c90c7c0b76f4e, type: 3}
      propertyPath: m_Name
      value: PTK_Cube_1 (3)
      objectReference: {fileID: 0}
    - target: {fileID: 4009654013808098, guid: b471d26a5eac87b4086c90c7c0b76f4e, type: 3}
      propertyPath: m_LocalPosition.x
      value: 268.62
      objectReference: {fileID: 0}
    - target: {fileID: 4009654013808098, guid: b471d26a5eac87b4086c90c7c0b76f4e, type: 3}
      propertyPath: m_LocalPosition.y
      value: 0
      objectReference: {fileID: 0}
    - target: {fileID: 4009654013808098, guid: b471d26a5eac87b4086c90c7c0b76f4e, type: 3}
      propertyPath: m_LocalPosition.z
      value: 241.83
      objectReference: {fileID: 0}
    - target: {fileID: 4009654013808098, guid: b471d26a5eac87b4086c90c7c0b76f4e, type: 3}
      propertyPath: m_LocalRotation.x
      value: 0
      objectReference: {fileID: 0}
    - target: {fileID: 4009654013808098, guid: b471d26a5eac87b4086c90c7c0b76f4e, type: 3}
      propertyPath: m_LocalRotation.y
      value: 0
      objectReference: {fileID: 0}
    - target: {fileID: 4009654013808098, guid: b471d26a5eac87b4086c90c7c0b76f4e, type: 3}
      propertyPath: m_LocalRotation.z
      value: 0
      objectReference: {fileID: 0}
    - target: {fileID: 4009654013808098, guid: b471d26a5eac87b4086c90c7c0b76f4e, type: 3}
      propertyPath: m_LocalRotation.w
      value: 1
      objectReference: {fileID: 0}
    - target: {fileID: 4009654013808098, guid: b471d26a5eac87b4086c90c7c0b76f4e, type: 3}
      propertyPath: m_RootOrder
      value: 5
      objectReference: {fileID: 0}
    - target: {fileID: 23777305934327796, guid: b471d26a5eac87b4086c90c7c0b76f4e, type: 3}
      propertyPath: m_Materials.Array.data[0]
      value: 
      objectReference: {fileID: 2100000, guid: 3e9b40bb243ad504dbf2adbd0918b9f5, type: 2}
    m_RemovedComponents: []
  m_SourcePrefab: {fileID: 100100000, guid: b471d26a5eac87b4086c90c7c0b76f4e, type: 3}
--- !u!1001 &340258626
PrefabInstance:
  m_ObjectHideFlags: 0
  serializedVersion: 2
  m_Modification:
    m_TransformParent: {fileID: 0}
    m_Modifications:
    - target: {fileID: 1410880384113558, guid: b471d26a5eac87b4086c90c7c0b76f4e, type: 3}
      propertyPath: m_Name
      value: PTK_Cube_1 (8)
      objectReference: {fileID: 0}
    - target: {fileID: 4009654013808098, guid: b471d26a5eac87b4086c90c7c0b76f4e, type: 3}
      propertyPath: m_LocalPosition.x
      value: 272.72
      objectReference: {fileID: 0}
    - target: {fileID: 4009654013808098, guid: b471d26a5eac87b4086c90c7c0b76f4e, type: 3}
      propertyPath: m_LocalPosition.y
      value: 0
      objectReference: {fileID: 0}
    - target: {fileID: 4009654013808098, guid: b471d26a5eac87b4086c90c7c0b76f4e, type: 3}
      propertyPath: m_LocalPosition.z
      value: 241.83
      objectReference: {fileID: 0}
    - target: {fileID: 4009654013808098, guid: b471d26a5eac87b4086c90c7c0b76f4e, type: 3}
      propertyPath: m_LocalRotation.x
      value: 0
      objectReference: {fileID: 0}
    - target: {fileID: 4009654013808098, guid: b471d26a5eac87b4086c90c7c0b76f4e, type: 3}
      propertyPath: m_LocalRotation.y
      value: 0
      objectReference: {fileID: 0}
    - target: {fileID: 4009654013808098, guid: b471d26a5eac87b4086c90c7c0b76f4e, type: 3}
      propertyPath: m_LocalRotation.z
      value: 0
      objectReference: {fileID: 0}
    - target: {fileID: 4009654013808098, guid: b471d26a5eac87b4086c90c7c0b76f4e, type: 3}
      propertyPath: m_LocalRotation.w
      value: 1
      objectReference: {fileID: 0}
    - target: {fileID: 4009654013808098, guid: b471d26a5eac87b4086c90c7c0b76f4e, type: 3}
      propertyPath: m_RootOrder
      value: 9
      objectReference: {fileID: 0}
    - target: {fileID: 23777305934327796, guid: b471d26a5eac87b4086c90c7c0b76f4e, type: 3}
      propertyPath: m_Materials.Array.data[0]
      value: 
      objectReference: {fileID: 2100000, guid: 1d995df76d244df4eafb5a026363c584, type: 2}
    m_RemovedComponents: []
  m_SourcePrefab: {fileID: 100100000, guid: b471d26a5eac87b4086c90c7c0b76f4e, type: 3}
--- !u!1001 &799612894
PrefabInstance:
  m_ObjectHideFlags: 0
  serializedVersion: 2
  m_Modification:
    m_TransformParent: {fileID: 0}
    m_Modifications:
    - target: {fileID: 1410880384113558, guid: b471d26a5eac87b4086c90c7c0b76f4e, type: 3}
      propertyPath: m_Name
      value: PTK_Cube_1 (13)
      objectReference: {fileID: 0}
    - target: {fileID: 4009654013808098, guid: b471d26a5eac87b4086c90c7c0b76f4e, type: 3}
      propertyPath: m_LocalPosition.x
      value: 268.62
      objectReference: {fileID: 0}
    - target: {fileID: 4009654013808098, guid: b471d26a5eac87b4086c90c7c0b76f4e, type: 3}
      propertyPath: m_LocalPosition.y
      value: 0
      objectReference: {fileID: 0}
    - target: {fileID: 4009654013808098, guid: b471d26a5eac87b4086c90c7c0b76f4e, type: 3}
      propertyPath: m_LocalPosition.z
      value: 239.85
      objectReference: {fileID: 0}
    - target: {fileID: 4009654013808098, guid: b471d26a5eac87b4086c90c7c0b76f4e, type: 3}
      propertyPath: m_LocalRotation.x
      value: 0
      objectReference: {fileID: 0}
    - target: {fileID: 4009654013808098, guid: b471d26a5eac87b4086c90c7c0b76f4e, type: 3}
      propertyPath: m_LocalRotation.y
      value: 0
      objectReference: {fileID: 0}
    - target: {fileID: 4009654013808098, guid: b471d26a5eac87b4086c90c7c0b76f4e, type: 3}
      propertyPath: m_LocalRotation.z
      value: 0
      objectReference: {fileID: 0}
    - target: {fileID: 4009654013808098, guid: b471d26a5eac87b4086c90c7c0b76f4e, type: 3}
      propertyPath: m_LocalRotation.w
      value: 1
      objectReference: {fileID: 0}
    - target: {fileID: 4009654013808098, guid: b471d26a5eac87b4086c90c7c0b76f4e, type: 3}
      propertyPath: m_RootOrder
      value: 12
      objectReference: {fileID: 0}
    - target: {fileID: 23777305934327796, guid: b471d26a5eac87b4086c90c7c0b76f4e, type: 3}
      propertyPath: m_Materials.Array.data[0]
      value: 
      objectReference: {fileID: 2100000, guid: 4f47b69c96e3e06438c10c907f7d4f98, type: 2}
    m_RemovedComponents: []
  m_SourcePrefab: {fileID: 100100000, guid: b471d26a5eac87b4086c90c7c0b76f4e, type: 3}
--- !u!1001 &847749038
PrefabInstance:
  m_ObjectHideFlags: 0
  serializedVersion: 2
  m_Modification:
    m_TransformParent: {fileID: 0}
    m_Modifications:
    - target: {fileID: 1410880384113558, guid: b471d26a5eac87b4086c90c7c0b76f4e, type: 3}
      propertyPath: m_Name
      value: PTK_Cube_1 (6)
      objectReference: {fileID: 0}
    - target: {fileID: 4009654013808098, guid: b471d26a5eac87b4086c90c7c0b76f4e, type: 3}
      propertyPath: m_LocalPosition.x
      value: 265.96
      objectReference: {fileID: 0}
    - target: {fileID: 4009654013808098, guid: b471d26a5eac87b4086c90c7c0b76f4e, type: 3}
      propertyPath: m_LocalPosition.y
      value: 0
      objectReference: {fileID: 0}
    - target: {fileID: 4009654013808098, guid: b471d26a5eac87b4086c90c7c0b76f4e, type: 3}
      propertyPath: m_LocalPosition.z
      value: 239.85
      objectReference: {fileID: 0}
    - target: {fileID: 4009654013808098, guid: b471d26a5eac87b4086c90c7c0b76f4e, type: 3}
      propertyPath: m_LocalRotation.x
      value: 0
      objectReference: {fileID: 0}
    - target: {fileID: 4009654013808098, guid: b471d26a5eac87b4086c90c7c0b76f4e, type: 3}
      propertyPath: m_LocalRotation.y
      value: 0
      objectReference: {fileID: 0}
    - target: {fileID: 4009654013808098, guid: b471d26a5eac87b4086c90c7c0b76f4e, type: 3}
      propertyPath: m_LocalRotation.z
      value: 0
      objectReference: {fileID: 0}
    - target: {fileID: 4009654013808098, guid: b471d26a5eac87b4086c90c7c0b76f4e, type: 3}
      propertyPath: m_LocalRotation.w
      value: 1
      objectReference: {fileID: 0}
    - target: {fileID: 4009654013808098, guid: b471d26a5eac87b4086c90c7c0b76f4e, type: 3}
      propertyPath: m_RootOrder
      value: 7
      objectReference: {fileID: 0}
    - target: {fileID: 23777305934327796, guid: b471d26a5eac87b4086c90c7c0b76f4e, type: 3}
      propertyPath: m_Materials.Array.data[0]
      value: 
      objectReference: {fileID: 2100000, guid: 698621012f4317746bf1b79896b709b6, type: 2}
    m_RemovedComponents: []
  m_SourcePrefab: {fileID: 100100000, guid: b471d26a5eac87b4086c90c7c0b76f4e, type: 3}
--- !u!1001 &944982924
PrefabInstance:
  m_ObjectHideFlags: 0
  serializedVersion: 2
  m_Modification:
    m_TransformParent: {fileID: 0}
    m_Modifications:
    - target: {fileID: 1410880384113558, guid: b471d26a5eac87b4086c90c7c0b76f4e, type: 3}
      propertyPath: m_Name
      value: PTK_Cube_1 (4)
      objectReference: {fileID: 0}
    - target: {fileID: 4009654013808098, guid: b471d26a5eac87b4086c90c7c0b76f4e, type: 3}
      propertyPath: m_LocalPosition.x
      value: 269.92
      objectReference: {fileID: 0}
    - target: {fileID: 4009654013808098, guid: b471d26a5eac87b4086c90c7c0b76f4e, type: 3}
      propertyPath: m_LocalPosition.y
      value: 0
      objectReference: {fileID: 0}
    - target: {fileID: 4009654013808098, guid: b471d26a5eac87b4086c90c7c0b76f4e, type: 3}
      propertyPath: m_LocalPosition.z
      value: 241.83
      objectReference: {fileID: 0}
    - target: {fileID: 4009654013808098, guid: b471d26a5eac87b4086c90c7c0b76f4e, type: 3}
      propertyPath: m_LocalRotation.x
      value: 0
      objectReference: {fileID: 0}
    - target: {fileID: 4009654013808098, guid: b471d26a5eac87b4086c90c7c0b76f4e, type: 3}
      propertyPath: m_LocalRotation.y
      value: 0
      objectReference: {fileID: 0}
    - target: {fileID: 4009654013808098, guid: b471d26a5eac87b4086c90c7c0b76f4e, type: 3}
      propertyPath: m_LocalRotation.z
      value: 0
      objectReference: {fileID: 0}
    - target: {fileID: 4009654013808098, guid: b471d26a5eac87b4086c90c7c0b76f4e, type: 3}
      propertyPath: m_LocalRotation.w
      value: 1
      objectReference: {fileID: 0}
    - target: {fileID: 4009654013808098, guid: b471d26a5eac87b4086c90c7c0b76f4e, type: 3}
      propertyPath: m_RootOrder
      value: 6
      objectReference: {fileID: 0}
    - target: {fileID: 23777305934327796, guid: b471d26a5eac87b4086c90c7c0b76f4e, type: 3}
      propertyPath: m_Materials.Array.data[0]
      value: 
      objectReference: {fileID: 2100000, guid: 08ae2008da04f244694203a3d1bc1c69, type: 2}
    m_RemovedComponents: []
  m_SourcePrefab: {fileID: 100100000, guid: b471d26a5eac87b4086c90c7c0b76f4e, type: 3}
--- !u!1001 &1025476046
PrefabInstance:
  m_ObjectHideFlags: 0
  serializedVersion: 2
  m_Modification:
    m_TransformParent: {fileID: 0}
    m_Modifications:
    - target: {fileID: 1410880384113558, guid: b471d26a5eac87b4086c90c7c0b76f4e, type: 3}
      propertyPath: m_Name
      value: PTK_Cube_1 (12)
      objectReference: {fileID: 0}
    - target: {fileID: 4009654013808098, guid: b471d26a5eac87b4086c90c7c0b76f4e, type: 3}
      propertyPath: m_LocalPosition.x
      value: 267.316
      objectReference: {fileID: 0}
    - target: {fileID: 4009654013808098, guid: b471d26a5eac87b4086c90c7c0b76f4e, type: 3}
      propertyPath: m_LocalPosition.y
      value: 0
      objectReference: {fileID: 0}
    - target: {fileID: 4009654013808098, guid: b471d26a5eac87b4086c90c7c0b76f4e, type: 3}
      propertyPath: m_LocalPosition.z
      value: 239.85
      objectReference: {fileID: 0}
    - target: {fileID: 4009654013808098, guid: b471d26a5eac87b4086c90c7c0b76f4e, type: 3}
      propertyPath: m_LocalRotation.x
      value: 0
      objectReference: {fileID: 0}
    - target: {fileID: 4009654013808098, guid: b471d26a5eac87b4086c90c7c0b76f4e, type: 3}
      propertyPath: m_LocalRotation.y
      value: 0
      objectReference: {fileID: 0}
    - target: {fileID: 4009654013808098, guid: b471d26a5eac87b4086c90c7c0b76f4e, type: 3}
      propertyPath: m_LocalRotation.z
      value: 0
      objectReference: {fileID: 0}
    - target: {fileID: 4009654013808098, guid: b471d26a5eac87b4086c90c7c0b76f4e, type: 3}
      propertyPath: m_LocalRotation.w
      value: 1
      objectReference: {fileID: 0}
    - target: {fileID: 4009654013808098, guid: b471d26a5eac87b4086c90c7c0b76f4e, type: 3}
      propertyPath: m_RootOrder
      value: 11
      objectReference: {fileID: 0}
    - target: {fileID: 23777305934327796, guid: b471d26a5eac87b4086c90c7c0b76f4e, type: 3}
      propertyPath: m_Materials.Array.data[0]
      value: 
      objectReference: {fileID: 2100000, guid: 797bf488c630d4c4da4076a24ec6a432, type: 2}
    m_RemovedComponents: []
  m_SourcePrefab: {fileID: 100100000, guid: b471d26a5eac87b4086c90c7c0b76f4e, type: 3}
--- !u!1001 &1419827006
PrefabInstance:
  m_ObjectHideFlags: 0
  serializedVersion: 2
  m_Modification:
    m_TransformParent: {fileID: 0}
    m_Modifications:
    - target: {fileID: 1410880384113558, guid: b471d26a5eac87b4086c90c7c0b76f4e, type: 3}
      propertyPath: m_Name
      value: PTK_Cube_1 (1)
      objectReference: {fileID: 0}
    - target: {fileID: 4009654013808098, guid: b471d26a5eac87b4086c90c7c0b76f4e, type: 3}
      propertyPath: m_LocalPosition.x
      value: 265.918
      objectReference: {fileID: 0}
    - target: {fileID: 4009654013808098, guid: b471d26a5eac87b4086c90c7c0b76f4e, type: 3}
      propertyPath: m_LocalPosition.y
      value: 0
      objectReference: {fileID: 0}
    - target: {fileID: 4009654013808098, guid: b471d26a5eac87b4086c90c7c0b76f4e, type: 3}
      propertyPath: m_LocalPosition.z
      value: 241.83
      objectReference: {fileID: 0}
    - target: {fileID: 4009654013808098, guid: b471d26a5eac87b4086c90c7c0b76f4e, type: 3}
      propertyPath: m_LocalRotation.x
      value: 0
      objectReference: {fileID: 0}
    - target: {fileID: 4009654013808098, guid: b471d26a5eac87b4086c90c7c0b76f4e, type: 3}
      propertyPath: m_LocalRotation.y
      value: 0
      objectReference: {fileID: 0}
    - target: {fileID: 4009654013808098, guid: b471d26a5eac87b4086c90c7c0b76f4e, type: 3}
      propertyPath: m_LocalRotation.z
      value: 0
      objectReference: {fileID: 0}
    - target: {fileID: 4009654013808098, guid: b471d26a5eac87b4086c90c7c0b76f4e, type: 3}
      propertyPath: m_LocalRotation.w
      value: 1
      objectReference: {fileID: 0}
    - target: {fileID: 4009654013808098, guid: b471d26a5eac87b4086c90c7c0b76f4e, type: 3}
      propertyPath: m_RootOrder
      value: 3
      objectReference: {fileID: 0}
    - target: {fileID: 23777305934327796, guid: b471d26a5eac87b4086c90c7c0b76f4e, type: 3}
      propertyPath: m_Materials.Array.data[0]
      value: 
      objectReference: {fileID: 2100000, guid: f36bc83af7f442f4bb065c8dff3dda31, type: 2}
    m_RemovedComponents: []
  m_SourcePrefab: {fileID: 100100000, guid: b471d26a5eac87b4086c90c7c0b76f4e, type: 3}
--- !u!1001 &1523865893
PrefabInstance:
  m_ObjectHideFlags: 0
  serializedVersion: 2
  m_Modification:
    m_TransformParent: {fileID: 0}
    m_Modifications:
    - target: {fileID: 1410880384113558, guid: b471d26a5eac87b4086c90c7c0b76f4e, type: 3}
      propertyPath: m_Name
      value: PTK_Cube_1 (2)
      objectReference: {fileID: 0}
    - target: {fileID: 4009654013808098, guid: b471d26a5eac87b4086c90c7c0b76f4e, type: 3}
      propertyPath: m_LocalPosition.x
      value: 267.316
      objectReference: {fileID: 0}
    - target: {fileID: 4009654013808098, guid: b471d26a5eac87b4086c90c7c0b76f4e, type: 3}
      propertyPath: m_LocalPosition.y
      value: 0
      objectReference: {fileID: 0}
    - target: {fileID: 4009654013808098, guid: b471d26a5eac87b4086c90c7c0b76f4e, type: 3}
      propertyPath: m_LocalPosition.z
      value: 241.83
      objectReference: {fileID: 0}
    - target: {fileID: 4009654013808098, guid: b471d26a5eac87b4086c90c7c0b76f4e, type: 3}
      propertyPath: m_LocalRotation.x
      value: 0
      objectReference: {fileID: 0}
    - target: {fileID: 4009654013808098, guid: b471d26a5eac87b4086c90c7c0b76f4e, type: 3}
      propertyPath: m_LocalRotation.y
      value: 0
      objectReference: {fileID: 0}
    - target: {fileID: 4009654013808098, guid: b471d26a5eac87b4086c90c7c0b76f4e, type: 3}
      propertyPath: m_LocalRotation.z
      value: 0
      objectReference: {fileID: 0}
    - target: {fileID: 4009654013808098, guid: b471d26a5eac87b4086c90c7c0b76f4e, type: 3}
      propertyPath: m_LocalRotation.w
      value: 1
      objectReference: {fileID: 0}
    - target: {fileID: 4009654013808098, guid: b471d26a5eac87b4086c90c7c0b76f4e, type: 3}
      propertyPath: m_RootOrder
      value: 4
      objectReference: {fileID: 0}
    - target: {fileID: 23777305934327796, guid: b471d26a5eac87b4086c90c7c0b76f4e, type: 3}
      propertyPath: m_Materials.Array.data[0]
      value: 
      objectReference: {fileID: 2100000, guid: 420df58d3076a034094d7f2662b5b1de, type: 2}
    m_RemovedComponents: []
  m_SourcePrefab: {fileID: 100100000, guid: b471d26a5eac87b4086c90c7c0b76f4e, type: 3}
--- !u!1001 &1698561150
PrefabInstance:
  m_ObjectHideFlags: 0
  serializedVersion: 2
  m_Modification:
    m_TransformParent: {fileID: 0}
    m_Modifications:
    - target: {fileID: 1410880384113558, guid: b471d26a5eac87b4086c90c7c0b76f4e, type: 3}
      propertyPath: m_Name
      value: PTK_Cube_1 (9)
      objectReference: {fileID: 0}
    - target: {fileID: 4009654013808098, guid: b471d26a5eac87b4086c90c7c0b76f4e, type: 3}
      propertyPath: m_LocalPosition.x
      value: 271.31
      objectReference: {fileID: 0}
    - target: {fileID: 4009654013808098, guid: b471d26a5eac87b4086c90c7c0b76f4e, type: 3}
      propertyPath: m_LocalPosition.y
      value: 0
      objectReference: {fileID: 0}
    - target: {fileID: 4009654013808098, guid: b471d26a5eac87b4086c90c7c0b76f4e, type: 3}
      propertyPath: m_LocalPosition.z
      value: 241.83
      objectReference: {fileID: 0}
    - target: {fileID: 4009654013808098, guid: b471d26a5eac87b4086c90c7c0b76f4e, type: 3}
      propertyPath: m_LocalRotation.x
      value: 0
      objectReference: {fileID: 0}
    - target: {fileID: 4009654013808098, guid: b471d26a5eac87b4086c90c7c0b76f4e, type: 3}
      propertyPath: m_LocalRotation.y
      value: 0
      objectReference: {fileID: 0}
    - target: {fileID: 4009654013808098, guid: b471d26a5eac87b4086c90c7c0b76f4e, type: 3}
      propertyPath: m_LocalRotation.z
      value: 0
      objectReference: {fileID: 0}
    - target: {fileID: 4009654013808098, guid: b471d26a5eac87b4086c90c7c0b76f4e, type: 3}
      propertyPath: m_LocalRotation.w
      value: 1
      objectReference: {fileID: 0}
    - target: {fileID: 4009654013808098, guid: b471d26a5eac87b4086c90c7c0b76f4e, type: 3}
      propertyPath: m_RootOrder
      value: 10
      objectReference: {fileID: 0}
    - target: {fileID: 23777305934327796, guid: b471d26a5eac87b4086c90c7c0b76f4e, type: 3}
      propertyPath: m_Materials.Array.data[0]
      value: 
      objectReference: {fileID: 2100000, guid: c56b206169d606441bc20e1a416560ce, type: 2}
    m_RemovedComponents: []
  m_SourcePrefab: {fileID: 100100000, guid: b471d26a5eac87b4086c90c7c0b76f4e, type: 3}
--- !u!1 &1713027145
GameObject:
  m_ObjectHideFlags: 0
  m_CorrespondingSourceObject: {fileID: 0}
  m_PrefabInstance: {fileID: 0}
  m_PrefabAsset: {fileID: 0}
  serializedVersion: 6
  m_Component:
  - component: {fileID: 1713027150}
  - component: {fileID: 1713027149}
  - component: {fileID: 1713027147}
  - component: {fileID: 1713027146}
  m_Layer: 0
  m_Name: Main Camera
  m_TagString: MainCamera
  m_Icon: {fileID: 0}
  m_NavMeshLayer: 0
  m_StaticEditorFlags: 0
  m_IsActive: 1
--- !u!81 &1713027146
AudioListener:
  m_ObjectHideFlags: 0
  m_CorrespondingSourceObject: {fileID: 0}
  m_PrefabInstance: {fileID: 0}
  m_PrefabAsset: {fileID: 0}
  m_GameObject: {fileID: 1713027145}
  m_Enabled: 1
--- !u!124 &1713027147
Behaviour:
  m_ObjectHideFlags: 0
  m_CorrespondingSourceObject: {fileID: 0}
  m_PrefabInstance: {fileID: 0}
  m_PrefabAsset: {fileID: 0}
  m_GameObject: {fileID: 1713027145}
  m_Enabled: 1
--- !u!20 &1713027149
Camera:
  m_ObjectHideFlags: 0
  m_CorrespondingSourceObject: {fileID: 0}
  m_PrefabInstance: {fileID: 0}
  m_PrefabAsset: {fileID: 0}
  m_GameObject: {fileID: 1713027145}
  m_Enabled: 1
  serializedVersion: 2
  m_ClearFlags: 2
  m_BackGroundColor: {r: 0.53676474, g: 0.53676474, b: 0.53676474, a: 0}
  m_projectionMatrixMode: 1
  m_GateFitMode: 2
  m_FOVAxisMode: 0
  m_SensorSize: {x: 36, y: 24}
  m_LensShift: {x: 0, y: 0}
  m_FocalLength: 50
  m_NormalizedViewPortRect:
    serializedVersion: 2
    x: 0
    y: 0
    width: 1
    height: 1
  near clip plane: 0.3
  far clip plane: 1000
  field of view: 60
  orthographic: 0
  orthographic size: 5
  m_Depth: -1
  m_CullingMask:
    serializedVersion: 2
    m_Bits: 4294967295
  m_RenderingPath: -1
  m_TargetTexture: {fileID: 0}
  m_TargetDisplay: 0
  m_TargetEye: 3
  m_HDR: 1
  m_AllowMSAA: 1
  m_AllowDynamicResolution: 0
  m_ForceIntoRT: 0
  m_OcclusionCulling: 1
  m_StereoConvergence: 10
  m_StereoSeparation: 0.022
--- !u!4 &1713027150
Transform:
  m_ObjectHideFlags: 0
  m_CorrespondingSourceObject: {fileID: 0}
  m_PrefabInstance: {fileID: 0}
  m_PrefabAsset: {fileID: 0}
  m_GameObject: {fileID: 1713027145}
  m_LocalRotation: {x: 0.47483838, y: -0, z: -0, w: 0.880073}
  m_LocalPosition: {x: 268.55, y: 4.1, z: 238.6}
  m_LocalScale: {x: 1, y: 1, z: 1}
  m_Children: []
  m_Father: {fileID: 0}
  m_RootOrder: 0
  m_LocalEulerAnglesHint: {x: 56.698, y: 0, z: 0}
--- !u!1001 &1937196539
PrefabInstance:
  m_ObjectHideFlags: 0
  serializedVersion: 2
  m_Modification:
    m_TransformParent: {fileID: 0}
    m_Modifications:
    - target: {fileID: 1410880384113558, guid: b471d26a5eac87b4086c90c7c0b76f4e, type: 3}
      propertyPath: m_Name
      value: PTK_Cube_1 (7)
      objectReference: {fileID: 0}
    - target: {fileID: 4009654013808098, guid: b471d26a5eac87b4086c90c7c0b76f4e, type: 3}
      propertyPath: m_LocalPosition.x
      value: 271.42
      objectReference: {fileID: 0}
    - target: {fileID: 4009654013808098, guid: b471d26a5eac87b4086c90c7c0b76f4e, type: 3}
      propertyPath: m_LocalPosition.y
      value: 0
      objectReference: {fileID: 0}
    - target: {fileID: 4009654013808098, guid: b471d26a5eac87b4086c90c7c0b76f4e, type: 3}
      propertyPath: m_LocalPosition.z
      value: 239.85
      objectReference: {fileID: 0}
    - target: {fileID: 4009654013808098, guid: b471d26a5eac87b4086c90c7c0b76f4e, type: 3}
      propertyPath: m_LocalRotation.x
      value: 0
      objectReference: {fileID: 0}
    - target: {fileID: 4009654013808098, guid: b471d26a5eac87b4086c90c7c0b76f4e, type: 3}
      propertyPath: m_LocalRotation.y
      value: 0
      objectReference: {fileID: 0}
    - target: {fileID: 4009654013808098, guid: b471d26a5eac87b4086c90c7c0b76f4e, type: 3}
      propertyPath: m_LocalRotation.z
      value: 0
      objectReference: {fileID: 0}
    - target: {fileID: 4009654013808098, guid: b471d26a5eac87b4086c90c7c0b76f4e, type: 3}
      propertyPath: m_LocalRotation.w
      value: 1
      objectReference: {fileID: 0}
    - target: {fileID: 4009654013808098, guid: b471d26a5eac87b4086c90c7c0b76f4e, type: 3}
      propertyPath: m_RootOrder
      value: 8
      objectReference: {fileID: 0}
    - target: {fileID: 23777305934327796, guid: b471d26a5eac87b4086c90c7c0b76f4e, type: 3}
      propertyPath: m_Materials.Array.data[0]
      value: 
      objectReference: {fileID: 2100000, guid: 639bdae38663ce249835e384c15d06d3, type: 2}
    m_RemovedComponents: []
  m_SourcePrefab: {fileID: 100100000, guid: b471d26a5eac87b4086c90c7c0b76f4e, type: 3}
--- !u!1001 &1980623117
PrefabInstance:
  m_ObjectHideFlags: 0
  serializedVersion: 2
  m_Modification:
    m_TransformParent: {fileID: 0}
    m_Modifications:
    - target: {fileID: 4009654013808098, guid: b471d26a5eac87b4086c90c7c0b76f4e, type: 3}
      propertyPath: m_LocalPosition.x
      value: 264.50226
      objectReference: {fileID: 0}
    - target: {fileID: 4009654013808098, guid: b471d26a5eac87b4086c90c7c0b76f4e, type: 3}
      propertyPath: m_LocalPosition.y
      value: 0
      objectReference: {fileID: 0}
    - target: {fileID: 4009654013808098, guid: b471d26a5eac87b4086c90c7c0b76f4e, type: 3}
      propertyPath: m_LocalPosition.z
      value: 241.83
      objectReference: {fileID: 0}
    - target: {fileID: 4009654013808098, guid: b471d26a5eac87b4086c90c7c0b76f4e, type: 3}
      propertyPath: m_LocalRotation.x
      value: 0
      objectReference: {fileID: 0}
    - target: {fileID: 4009654013808098, guid: b471d26a5eac87b4086c90c7c0b76f4e, type: 3}
      propertyPath: m_LocalRotation.y
      value: 0
      objectReference: {fileID: 0}
    - target: {fileID: 4009654013808098, guid: b471d26a5eac87b4086c90c7c0b76f4e, type: 3}
      propertyPath: m_LocalRotation.z
      value: 0
      objectReference: {fileID: 0}
    - target: {fileID: 4009654013808098, guid: b471d26a5eac87b4086c90c7c0b76f4e, type: 3}
      propertyPath: m_LocalRotation.w
      value: 1
      objectReference: {fileID: 0}
    - target: {fileID: 4009654013808098, guid: b471d26a5eac87b4086c90c7c0b76f4e, type: 3}
      propertyPath: m_RootOrder
      value: 1
      objectReference: {fileID: 0}
    m_RemovedComponents: []
  m_SourcePrefab: {fileID: 100100000, guid: b471d26a5eac87b4086c90c7c0b76f4e, type: 3}
